{
  "title":		"Dali Clock",
  "id":			"org.jwz.daliclock",
  "version":		"2.48.0",
  "release_date":	"26-Aug-2023",
  "vendor":		"Jamie Zawinski",
  "vendor_email":	"jwz@jwz.org",
  "vendor_url":		"https://www.jwz.org/xdaliclock/",
  "type":		"web",
  "main":		"index.html",
  "icon":		"icon.png",
}
